…
      tibble(
        beta.0 = mle$par[1],
        beta.1 = mle$par[2],
        kappa  = exp(mle$par[3]),
        convergence = mle$convergence
      )
    }
  )

results
```

    ## # A tibble: 100 × 4
    ##    beta.0 beta.1    kappa convergence
    ##     <dbl>  <dbl>    <dbl>       <int>
    ##  1  5.55    3.73 3.91e- 1           0
    ##  2  5.50    3.68 3.36e- 1           0
    ##  3 13.3    46.0  1.99e-36           0
    ##  4 13.3    46.0  1.99e-36           0
    ##  5  7.03   19.2  2.14e-25           0
    ##  6 -0.907   3.21 1.18e+ 0           0
    ##  7 29.5     8.57 7.96e-24           0
    ##  8  5.50    3.65 3.17e- 1           0
    ##  9 13.3    46.0  1.99e-36           0
    ## 10 11.9    48.9  4.03e-40           0
    ## # ℹ 90 more rows

I risultati della simulazione sono decisamente da quelli che ci si
potrebbe aspettare. A titolo di esempio, seleziono le righe in cui il
parametro stimato per `beta.0` esce dall’intervallo $\pm 3 \sigma$ dove
$\sigma$ corrisponde al valore stimato tramite l’informazione di Fisher

``` r
print(
results %>% 
  filter(!between(beta.0, -1 - 3*se[1], -1 + 3*se[1])),
n = 50)
```

    ## # A tibble: 79 × 4
    ##    beta.0  beta.1    kappa convergence
    ##     <dbl>   <dbl>    <dbl>       <int>
    ##  1  5.55    3.73  3.91e- 1           0
    ##  2  5.50    3.68  3.36e- 1           0
    ##  3 13.3    46.0   1.99e-36           0
    ##  4 13.3    46.0   1.99e-36           0
    ##  5  7.03   19.2   2.14e-25           0
    ##  6 29.5     8.57  7.96e-24           0
    ##  7  5.50    3.65  3.17e- 1           0
    ##  8 13.3    46.0   1.99e-36           0
    ##  9 11.9    48.9   4.03e-40           0
    ## 10  7.92   31.8   4.30e-26           0
    ## 11 30.1   -10.4   6.84e- 2           0
    ## 12 13.3    46.0   1.99e-36           0
    ## 13  5.69    3.85  3.50e- 1           0
    ## 14  9.25    2.79  3.37e- 2           0
    ## 15 13.3    46.0   1.99e-36           0
    ## 16 13.3    46.0   1.99e-36           0
    ## 17  6.53    4.50  2.62e- 1           0
    ## 18  8.73   44.2   1.04e-30           0
    ## 19 10.8    16.2   8.93e-29           0
    ## 20 11.9    48.9   4.03e-40           0
    ## 21  6.42   32.1   1.60e-22           0
    ## 22 13.3    46.0   1.99e-36           0
    ## 23 13.3    46.0   1.99e-36           0
    ## 24 41.6    10.4   3.88e-33           0
    ## 25  8.73   44.2   1.04e-30           0
    ## 26  5.50    3.64  3.62e- 1           0
    ## 27 41.6    10.4   3.88e-33           0
    ## 28 29.5     8.57  7.96e-24           0
    ## 29 13.3    46.0   1.99e-36           0
    ## 30 11.9    48.9   4.03e-40           0
    ## 31 13.3    46.0   1.99e-36           0
    ## 32 10.8    16.2   8.93e-29           0
    ## 33 10.8    16.2   8.93e-29           0
    ## 34  7.03   19.2   2.14e-25           0
    ## 35  5.28    3.53  2.82e- 1           0
    ## 36  5.72    3.85  1.94e- 1           0
    ## 37  8.43   28.8   8.84e-25           0
    ## 38 10.8    16.2   8.93e-29           0
    ## 39 11.9    48.9   4.03e-40           0
    ## 40  8.73   44.2   1.04e-30           0
    ## 41 13.3    46.0   1.99e-36           0
    ## 42 13.3    46.0   1.99e-36           0
    ## 43 13.3    46.0   1.99e-36           0
    ## 44  5.63    3.78  2.43e- 1           0
    ## 45  5.81    3.93  3.75e- 1           0
    ## 46 29.5     8.57  7.96e-24           0
    ## 47 13.3    46.0   1.99e-36           0
    ## 48  5.83    3.93  3.44e- 1           0
    ## 49  0.181  -0.444 9.33e- 2           0
    ## 50 13.3    46.0   1.99e-36           0
    ## # ℹ 29 more rows
…
